﻿programme_name,faculty,admission_requirements,core_modules,general_purpose_modules
Bachelor of Computer Science,Faculty of Computing and Informatics,D-symbol in Mathematics on NSSCO or an e-symbol on NSSCAS,"Programming 1, Mathematics for IT 1A, Computer Organisation and Architecture, Applied Statistics & Probability for IT, Introduction to Computer Networking, IT Systems Security"," English for Academic Purposes, Information Competence"
Bachelor of Computer Science in Cyber Security,Faculty of Computing and Informatics,C-symbol in Mathematics on NSSCO or an e-symbol on NSSCAS,"Programming 1, Object Oriented Programming, Mathematics for IT 1A, Computer Organisation and Architecture, Computer Organisation and Architecture, IT Systems Security Networks"," English for Academic Purposes, Information Competence"
Bachelor of Informatics,Faculty of Computing and Informatics,D-symbol in Mathematics on NSSCO or an e-symbol on NSSCAS,"Programming 1, Mathematics for IT 1A, Web Development Fundamentals, Database Programming and Techniques, Enterprise Web Application Development, Health Information Systems & Technology"," English for Academic Purposes, Information Competence"
Bachelor of Journalism and Media Technology,Faculty of Computing and Informatics,D-symbol or better in English on NSCO,"Media, Technology and Society, Critical Discourse Analysis, Introduction to Photography, Multimedia Design and Production, News Reporting and Writing",N/A
Bachelor of Computer Science Honours: Communication Networks,Faculty of Computing and Informatics,A Bachelor degree in Computer Science on NQF Level 7 worth at least 360 credits.,"Mobile Networks and Architectures, Network Vulnerabilities and Security,  Multimedia Communications, Research Methodology",N/A
Bachelor of Computer Science Honours: Software Development,Faculty of Computing and Informatics,A Bachelor degree in Computer Science on NQF Level 7 worth at least 360 credits.,"Research Methodology, Emerging and Open Issues in Software Development, Mobile Platforms and Development Environments, Programming for Security",N/A
Bachelor of Computer Science Honours: Information Security,Faculty of Computing and Informatics,A Bachelor degree in Computer Science on NQF Level 7 worth at least 360 credits.,"Research Methodology , Advanced Intrusion and Log Analysis, Mobile and Cloud Forensics,Applied Cryptography, Ethical Network Hacking, Information Security Management and Assurance",N/A
Bachelor of Computer Science Honours: Digital Forensics,Faculty of Computing and Informatics,A Bachelor degree in Computer Science on NQF Level 7 worth at least 360 credits.,"Research Methodology, Advanced Intrusion and Log Analysis, Digital Forensics Management, Applied Cryptography, Information Security Management and Assurance",N/A
Bachelor of Informatics Honours: Web Informatics,Faculty of Computing and Informatics,A Bachelor degree in Informatics or an equivalent qualification at NQF Level 7 worth at least 360 credits,"Research Methodology, Web Application Development and Testing, Information and Knowledge Management Systems, Enterprise Architecture, Finance for Non‐Financial Professionals",N/A
Bachelor of Informatics Honours: Business Informatics,Faculty of Computing and Informatics,A Bachelor degree in Informatics or an equivalent qualification at NQF Level 7 worth at least 360 credits,"Research Methodology, Web Application Development and Testing, Digital Marketing, Advanced MultiMedia and Graphics Design, Information and Knowledge Management Systems, Mobile Platforms and Development Environments, Finance for Non‐Financial Professionals",N/A
Bachelor of Journalism and Media Technology Honours,Faculty of Computing and Informatics,A Bachelor of Journalism and Media Technology or equivalent qualification at NQF Level 7,"Research Methods,  Media and Globalisation, Development Journalism and Media, Advanced Academic Writing, Intercultural Journalism,  Media Research Production",N/A
Postgraduate Certificate in Informatics (Information Systems Audit),Faculty of Computing and Informatics,A three-year advanced diploma or Bachelor degree or an equivalent qualification at NQF Level 7,"Information Security Management and Assurance, Accounting Information Systems, Information Systems Audit, Finance for Non‐Financial Professionals",N/A
Master of Computer Science,Faculty of Computing and Informatics,A Bachelor Honours Degree on NQF Level 8 related to computer science,N/A,N/A
Master of Data Science,Faculty of Computing and Informatics,"A Bachelor Honours Degree or equivalent qualification at NQF Level 8 in any one of the following fields: Computer Science, Informatics, Information Systems, Statistics, Engineering, Mathematics or Physics",N/A,N/A
Master of Informatics,Faculty of Computing and Informatics,A Bachelor Honours degree at NQF Level 8 or equivalent qualification,N/A,N/A
Master of Journalism and Media Technology,Faculty of Computing and Informatics,A Bachelor of Journalism and Media Technology at NQF Lvel 8,"Media Ethics in the Digital Age, Business and Economics Reporting, Critical Research Paradigms , Media Research Production, Science Journalism and Bioethics",N/A
Doctor of Philosophy in Computer Science,Faculty of Computing and Informatics,A Master of Computer Science or related degree on NQF Level 9.,N/A,N/A
Doctor of Philosophy in Informatics,Faculty of Computing and Informatics,A Master of Informatics or related degree at NQF Level 9,N/A,N/A
"Introduction to Science, Technology, Engineering and Mathematics (one year programme)",Faculty of Engineering and the Built Environment,25 points in 5 subjects including D symbols in Mathematics and Physical Science or Physics and Chemistry. Applicants who wants to pursue studies in health ad Applied Sciences as well natural resources should also have minimum D symbol in Biology.,"Introduction to Mathematics A and B, Introduction to Physics A and B, Introduction to Chemistry A and B, Computer User Skills, Principles of English Language Use, English in Practice ",N/A
Bachelor of Technology in Civil Engineering,Faculty of Engineering and the Built Environment,"A minimum of 30 points in five subjects including a Grade 3 on NSSCH or A-symbol on NSSCO in Mathematics, Physical Science or Physics and Chemistry","Applied Physics and Chemistry, Fundamentals of Electrical Technology, Engineering Surveying,  Engineering Mathematics 2, Engineering Mathematics 3,  Fundamental of Quantity Surveying,  Information Competence,  Innovation, Creativity and Entrepreneurship"," English for Academic Purposes, Information Competence"
Bachelor of Technology in Power Engineering,Faculty of Engineering and the Built Environment,"A minimum of 30 points in five subjects including a Grade 3 on NSSCH or A-symbol on NSSCO in Mathematics, Physical Science or Physics and Chemistry","Analogue Electronics 115, Fundamentals of Programming 114,  Electrical Transmission and Distribution 214, Microcontroller Applications 224,  Electrical Protection 314"," English for Academic Purposes, Information Competence"
Bachelor of Technology in Electronic Engineering,Faculty of Engineering and the Built Environment,"A minimum of 30 points in five subjects including a Grade 3 on NSSCH or A-symbol on NSSCO in Mathematics, Physical Science or Physics and Chemistry","Analogue  Electronics 115 ,  Electrical  Engineering Fundamentals 115, Applied Programming 124,  Electronic Circuit CAD and Simulations 214,  Electronic Circuit Design 225"," English for Academic Purposes, Information Competence"
Bachelor of Technology in Mechanical Engineering,Faculty of Engineering and the Built Environment,"A minimum of 30 points in five subjects including a Grade 3 on NSSCH or A-symbol on NSSCO in Mathematics, Physical Science or Physics and Chemistry","Applied Physics and Chemistry, Engineering Mathematics 2, Electronics and Instrumentation,  Engineering Mathematics 3 ,  Design of Machine Elements  2"," English for Academic Purposes, Information Competence"
Bachelor of Engineering in Civil Engineering,Faculty of Engineering and the Built Environment,"A minimum of 37 points in five subjects including Grade 3 in Physical Science and Mathematics on NSSCH or d-symbols on NSSCAS in Chemistry, Physics and Mathematics.","Engineering Mathematics 115,  Engineering Mathematics 125, Engineering Mathematics 215,  Engineering Geology 214, Engineering Hydrology 224, Geotechnical Engineering 314, Pavement Technology 325"," English for Academic Purposes, Information Competence"
Bachelor of Chemical Engineering,Faculty of Engineering and the Built Environment,"A minimum of 37 points in five subjects including Grade 3 in Physical Science and Mathematics on NSSCH or d-symbols on NSSCAS in Chemistry, Physics and Mathematics.","Engineering Physics 114, Mechanics of Materials 124,  Chemical Process Industry and Technologies 214,  Sustainability and Development, Hydrometallurgy 314, Process Instrumentation and Control 314"," English for Academic Purposes, Information Competence"
Bachelor of Engineering in Mining,Faculty of Engineering and the Built Environment,"A minimum of 37 points in five subjects including Grade 3 in Physical Science and Mathematics on NSSCH or d-symbols on NSSCAS in Chemistry, Physics and Mathematics.","Electrical Circuits 124,  Engineering Mathematics 125,  Introduction to Mining and Metallurgy 214, Numerical Methods 224, Mine Drawing and Design 314, Mine Drawing and Design 314"," English for Academic Purposes, Information Competence"
Bachelor of Engineering in Metallurgy,Faculty of Engineering and the Built Environment,"A minimum of 37 points in five subjects including Grade 3 in Physical Science and Mathematics on NSSCH or d-symbols on NSSCAS in Chemistry, Physics and Mathematics.","Engineering Chemistry 123, Workshop Practice 120 , Engineering Mathematics 215,  Transport Phenomena 225, Mineral Separation Processes 314, Process Thermodynamics 324, Heat Treatment of Metals 414"," English for Academic Purposes, Information Competence"
Bachelor of Engineering: Electrical Power,Faculty of Engineering and the Built Environment,"A minimum of 37 points in five subjects including Grade 3 in Physical Science and Mathematics on NSSCH or d-symbols on NSSCAS in Chemistry, Physics and Mathematics.","Engineering Mathematics 115, Computing for Engineers 114, Analogue Electronic Devices and Systems 215, Programming for Engineers 214, Analogue Electronics Design 225, Thermodynamics 225"," English for Academic Purposes, Information Competence"
Bachelor of Engineering in Electronics and Telecommunication,Faculty of Engineering and the Built Environment,"A minimum of 37 points in five subjects including Grade 3 in Physical Science and Mathematics on NSSCH or d-symbols on NSSCAS in Chemistry, Physics and Mathematics.","Engineering Mathematics 115, Engineering Mechanics 114,  Engineering Physics 114 , English for Academic Purposes or Module 3, Engineering Mathematics 125,  Computer Aided Drawing 124, Engineering Mathematics 215"," English for Academic Purposes, Information Competence"
Bachelor of Engineering in Mechanical Engineering,Faculty of Engineering and the Built Environment,"A minimum of 37 points in five subjects including Grade 3 in Physical Science and Mathematics on NSSCH or d-symbols on NSSCAS in Chemistry, Physics and Mathematics.","Systems Modeling 313, Experimental Methods 315, Numerical Methods 224, Thermodynamics 225, Manufacturing Processes 313, Sustainability and Development, Heat Transfer 324, Mechanics of Materials 314"," English for Academic Purposes, Information Competence"
Bachelor of Engineering in Industrial Engineering,Faculty of Engineering and the Built Environment,"A minimum of 37 points in five subjects including Grade 3 in Physical Science and Mathematics on NSSCH or d-symbols on NSSCAS in Chemistry, Physics and Mathematics.","Systems Simulation Modeling 314, Engineering Mathematics 215, Quality Engineering 314, Accounting and Management 324, Industrial Design Project 414, Industrial Engineering Project 420"," English for Academic Purposes, Information Competence"
Bachelor of Architecture,Faculty of Engineering and the Built Environment,"30 Points in five subjects of which 12 points must be in English and Mathematics and 18 points for any of three subjects out of the following: Arts and Craft, Biology, Economics, Fine Art, Geography, Literature, Physical Science, Physics or Technical Drawings","Architectural Design 1A, Architecture in Context, Architectural Design 1B, Architecture and Discourse, Architectural Design 2B, Principles of Urban Design"," English for Academic Purposes, Information Competence"
Diploma in Geomatics,Faculty of Engineering and the Built Environment,C symbol in Mathematics at NSSCO and a pass in Geography or Physical Science related subject.,"Introduction to Land Use, Geographic Information Systems 1, Computer Aided Drafting, Digital Terrain Modelling, Cartography and Map Visualisation, Geomatics Adjustment Theory, Sectional Title Surveying"," English for Academic Purposes, Information Competence"
Bachelor of Geomatics,Faculty of Engineering and the Built Environment,30 points in five subjects including A symbol in Mathematics on NSSCO and B symbol in Physical Science or Physics and Grade 3 or d symbol on NSSCAS.,"Cadastral Surveying 2, Information Competence, Engineering Surveying, Digital Terrain Modelling, Photogrammetry, Introduction to Land Use"," English for Academic Purposes, Information Competence"
Bachelor of Geoinformation Technology,Faculty of Engineering and the Built Environment,"C symbol on NSSCO in Geography , Mathematics and Physical Science or Physics","Introduction to Geospatial Data, Web Development Fundamentals, Geoinformation Management , Database Programming and Techniques,  Geographic Information Systems 3, Advanced Web GIS,  Geodemographics"," English for Academic Purposes, Information Competence"
Bachelor of Land Administration,Faculty of Engineering and the Built Environment,E symbol in Mathematics,"Introduction to Geo‐Spatial Data, Geographic Information Systems 1, Introduction to Valuation , Information Competence, Innovative Approaches to Land Administration, Land Administration Theory and Practice, Project Management for Land Administration"," English for Academic Purposes, Information Competence"
Diploma in Property Studies,Faculty of Engineering and the Built Environment,E symbol in Mathematics,"Mathematics and Statistics for Spatial Sciences, Land Economics and Taxation, Property Management and Maintenance, Land Tenure Systems, Real Estate Practice,  Law for Land Registration"," English for Academic Purposes, Information Competence"
Bachelor of Property Studies,Faculty of Engineering and the Built Environment,30 points in five subjects including at least a D symbol in Mathematics,"Mathematics & Statistics for Spatial Sciences, Principles of Macroeconomics, Property Management and Maintenance,  Elements of Urban and Rural Economics, Real Estate Market Analysis, Advanced Property Finance and Investment"," English for Academic Purposes, Information Competence"
Bachelor of Regional and Rural Development,Faculty of Engineering and the Built Environment,A minimum of 30 points in five subjects including a D symbol in English and Mathematics on NSSCO.,"Introduction to Land Use Planning and Management, Natural Resource Management, Rural Livelihoods and Community Development, Public Management in Namibia, Integrated Environmental Management, Applied Regional and Rural Economic Development"," English for Academic Purposes, Information Competence"
Bachelor of Quantity Surveying,Faculty of Engineering and the Built Environment,"A minimum of 30 points in five subjects including a minimum of 12 points for English and Mathematics and 18 points in any three subjects out of the following: Chemistry, Biology, Economics, Physics, Physical Science, Technical Drawings. No symbol must be lower than a C on NSSCO.","Applied Building Science, Principles of Microeconomics, Principles of Management, Construction Technology 2, Computer Applications for Quantity Surveying, Quantity Surveying Project, Sustainability and Development"," English for Academic Purposes, Information Competence"
Bachelor of Town and Regional Planning,Faculty of Engineering and the Built Environment,A minimum of 30 points in 5 subjects including 12 points for English and Mathematics. No symbol should be lower than a C symbol on NSSCO.,"Land Tenure Systems, Principles of Micro Economics, Introduction to Land Use Planning and
Management, Critical City Structure and Components, Introduction to Applied Statistics, Principles and Guidelines for Layout Planning, Demography and Population Studies"," English for Academic Purposes, Information Competence"
Master of Engineering in Civil Engineering,Faculty of Engineering and the Built Environment,A relevant Bachelor of Civil Engineering degree or equivalent qualification at NQF Level 8.,"Construction Management and Methods, Advanced Structural Analysis and Structural Dynamics, GIS and Data Management, Advanced Pavement Technology & Design, Flood Control and Water Resources Utilisation, Hydrogeology",N/A
Master of Environmental Engineering,Faculty of Engineering and the Built Environment,A relevant Bachelor of Engineering degree at NQF Level 8.,"Environmental Systems and Analysis Tools, Solid Waste Engineering and Cleaner Production, Environmental Fluid Mechanics, Renewable Energies & Energy System Engineering, Advanced Water and Wastewater Engineering, Thesis Environmental Engineering Extension",N/A
Master of Integrated Water Resources Management,Faculty of Engineering and the Built Environment,A relevant Bachelor of Engineering degree at NQF Level 8,"Integrated Water Resource Management, Water Quality & Environmental Management,  Hydrogeology, Water Resources Analysis & Planning, Environmental Water Quality Processes, Water Supply Management",N/A
"Master of Engineering in
Metallurgy",Faculty of Engineering and the Built Environment,A Bachelor of Engineering degree in Metallurgy or an equivalent qualification at NQF Level 8,N/A,N/A
"Master of Sustainable Energy
Systems",Faculty of Engineering and the Built Environment,"A Bachelor degree at NQF Level 8 in the following fields: Mechanical, Industrial, Electrical, Mining, Metallurgy, Agriculture, Chemical Engineering.",N/A,N/A
Master of Industrial Engineering,Faculty of Engineering and the Built Environment,A relevant Bachelor of Engineering degree at NQF Level 8 with a research component. Applicant must be employed or self-employed.,N/A,N/A
"Doctor of Philosophy in
Engineering",Faculty of Engineering and the Built Environment,A relevant Masters degree in the field of Engineering or equivalent at NQF Level 9.,N/A,N/A
Bachelor of Architecture Honours,Faculty of Engineering and the Built Environment,A Bachelor of Architecture or an equivalent qualification at NQF Level 7.,N/A,N/A
Bachelor of Geomatics Honours,Faculty of Engineering and the Built Environment,A Bachelor of Geomatics or an equivalent qualification at NQF Level 7.,N/A,N/A
"Bachelor of Geoinformation
Technology Honours",Faculty of Engineering and the Built Environment,A Bachelor of Geoinformation Technology or an equivalent qualification at NQF Level 7.,N/A,N/A
"Bachelor of Land Administration
Honours",Faculty of Engineering and the Built Environment,A Bachelor of Land Administration or an equivalent qualification at NQF Level 7.,N/A,N/A
"Bachelor of Regional and Rural
Development Honours",Faculty of Engineering and the Built Environment,A Bachelor of Regional and Rural Development or an equivalent qualification at NQF Level 7.,N/A,N/A
"Bachelor of Urban and Regional
Planning Honours",Faculty of Engineering and the Built Environment,A Bachelor of Town and Regional Planning or an equivalent qualification at NQF Level 7.,N/A,N/A
Master of Architecture,Faculty of Engineering and the Built Environment,"A Bachelor of Architecture Honours or an equivalent qualification at NQF Level 8, worth at least 480 NQF Credits.",N/A,N/A
Master of Landscape Architecture,Faculty of Engineering and the Built Environment,A Bachelor of Architecture Honours or an equivalent qualification at NQF Level 8.,N/A,N/A
"Master of Geoinformation
Science and Earth Observation",Faculty of Engineering and the Built Environment,A Bachelor of Geoinformation Technology Honours or equivalent qualification at NQF Level 8.,N/A,N/A
Master of Spatial Sciences,Faculty of Engineering and the Built Environment,A Bachelor Honours degree at NQF Level 8 in fields related to spatial sciences.,N/A,N/A
Master of Urban Design,Faculty of Engineering and the Built Environment,"A Bachelor Honours degree in Architecture, Town and Regional Planning or Regional and Rural Development at NQF Level 8. Applicants must have at least two years practical experience as a candidate professional.",N/A,N/A
"Doctor of Philosophy in Spatial
Sciences",Faculty of Engineering and the Built Environment,A NQF Level 9 qualification in Spatial Science related subjects. Must have conducted supervised research at master degree level.,N/A,N/A
Bachelor of Science in Agriculture,"Faculty of Health, Natural Resources and Applied Sciences",E symbol in Mathematics and Biology or science related subject. Candidates can also apply via the Mature Age Entry Scheme,N/A,N/A
"Bachelor of Applied Mathematics
and Statistics","Faculty of Health, Natural Resources and Applied Sciences","B symbol in NSSC Ordinary Level or E symbol in NSSC Advanced level Mathematics. Applicants who obtained a C symbol in Mathematics in the old NSSC Ordinary Level, will be required to sit for an entrance test.",N/A,N/A
"Bachelor of Emergency Medical
Care","Faculty of Health, Natural Resources and Applied Sciences","18 points for Mathematics, Biology AND EITHER Physics or Chemistry. No symbol should be lower than a B on Ordinary Level or a D on AS Level.",N/A,N/A
"Bachelor of Environmental
Health Science","Faculty of Health, Natural Resources and Applied Sciences","20 points for Biology, Mathematics, Physics and Chemistry. No symbol should be lower than a C on Ordinary Level or a D on AS Level.",N/A,N/A
"Bachelor of Health Information
Systems Management","Faculty of Health, Natural Resources and Applied Sciences","20 points for Biology, Mathematics, Physics and Chemistry. No symbol should be lower than a C on Ordinary Level or a D on AS Level.",N/A,N/A
Bachelor of Horticulture,"Faculty of Health, Natural Resources and Applied Sciences",C symbol in Biology or related subject and D symbol in Mathematics. Candidates can also apply via the Mature Age Entry Scheme,N/A,N/A
Bachelor of Human Nutrition,"Faculty of Health, Natural Resources and Applied Sciences","20 points for Biology, Mathematics, Physics and Chemistry. No symbol should be lower than a C on Ordinary Level or a D on AS Level.",N/A,N/A
Bachelor of Medical Laboratory Sciences,"Faculty of Health, Natural Resources and Applied Sciences","24 points for Mathematics, Biology, Chemistry and Physics. No symbol should be lower than a C on Ordinary Level or a D on AS Level.",N/A,N/A
"Bachelor of Natural resources
Management","Faculty of Health, Natural Resources and Applied Sciences",D symbol in English and Mathematics and C symbol in Biology or Geography or Agricuture. Candidates can also apply via the Mature Age Entry Scheme,N/A,N/A
Bachelor of Science,"Faculty of Health, Natural Resources and Applied Sciences","15 points for Mathematics, Biology and Physical Science. No symbol should be lower than a C.",N/A,N/A
Bachelor of Science in Agriculture Honours,"Faculty of Health, Natural Resources and Applied Sciences",A Bachelor of Agriculture or an equivalent qualification at NQF Level 7.,N/A,N/A
Bachelor of Science Honours in Applied Mathematics,"Faculty of Health, Natural Resources and Applied Sciences",A Bachelor of Science in Applied Mathematics and Statistics or an equivalent qualification at NQF Level 7.,N/A,N/A
Bachelor of Science Honours in Applied Statistics,"Faculty of Health, Natural Resources and Applied Sciences",A Bachelor of Science in Applied Mathematics and Statistics or an equivalent qualification at NQF Level 7.,N/A,N/A
Bachelor of Emergency Medical Care Honours,"Faculty of Health, Natural Resources and Applied Sciences",A Bachelor of Emergency Medical Care or an equivalent qualification at NQF Level 7,N/A,N/A
Bachelor of Natural Resources Management Honours,"Faculty of Health, Natural Resources and Applied Sciences",A Bachelor of Natural Resources Management or an equivalent qualification at NQF Level 7.,N/A,N/A
Bachelor of Science Honours with Specializations in Applied Biology,"Faculty of Health, Natural Resources and Applied Sciences",A Bachelor of Science degree or an equivalent qualification at NQF Level 7.,N/A,N/A
Bachelor of Science Honours with Specializations in Biotechnology,"Faculty of Health, Natural Resources and Applied Sciences",A Bachelor of Science degree or an equivalent qualification at NQF Level 7.,N/A,N/A
Bachelor of Science Honours with Specializations in Applied Physics,"Faculty of Health, Natural Resources and Applied Sciences",A Bachelor of Science degree or an equivalent qualification at NQF Level 7.,N/A,N/A
Bachelor of Science Honours with Specializations in Applied Chemistry,"Faculty of Health, Natural Resources and Applied Sciences",A Bachelor of Science degree or an equivalent qualification at NQF Level 7.,N/A,N/A
Postgraduate Diploma in Applied Radiation Science and Technology,"Faculty of Health, Natural Resources and Applied Sciences","A Bachelor of Science or an equivalent qualification at NQF Level 7, which incorporates physics or chemistry as a major subject.",N/A,N/A
Master of Agribusiness Management,"Faculty of Health, Natural Resources and Applied Sciences",A Bachelor of Agricultural Management Honours or an equivalent qualification at NQF Level 8.,N/A,N/A
Master of Science in Applied Mathematics,"Faculty of Health, Natural Resources and Applied Sciences",A Bachelor of Science Honours in Mathematics or an equivalent qualification at NQF Level 8.,N/A,N/A
Master of Science in Applied Statistics,"Faculty of Health, Natural Resources and Applied Sciences",A Bachelor of Science Honours in Statistics or an equivalent qualification at NQF Level 8.,N/A,N/A
Master of Health Sciences,"Faculty of Health, Natural Resources and Applied Sciences","A Bachelor Honours degree in Environmental Health Science, Biomedical Science or Emergency Medical Care or equivalent qualification at NQF Level 8.",N/A,N/A
Master of Science in Natural and Applied Sciences,"Faculty of Health, Natural Resources and Applied Sciences",A Bacheloro of Science in Natural and Applied Science Honours or an equivalent qualification at NQF Level 8.,N/A,N/A
Master of Natural Resources Management,"Faculty of Health, Natural Resources and Applied Sciences",Bachelor of Natural Resources Management Honours or an equivalent qualification at NQF Level 8.,N/A,N/A
Doctor of Philosophy in Health Sciences,"Faculty of Health, Natural Resources and Applied Sciences",A Master of Health Science or an equivalent qualification at NQF Level 9.,N/A,N/A
Doctor of Philosophy in Mathematics,"Faculty of Health, Natural Resources and Applied Sciences",A Master of Science in Mathematics or an equivalent qualification at NQF Level 9.,N/A,N/A
Doctor of Philosophy in Natural Resources Sciences,"Faculty of Health, Natural Resources and Applied Sciences",A NQF Level 9 qualification in Natural Resources Science related subjects. Must have conducted supervised research at master degree level.,N/A,N/A
Bachelor of Accounting,"Faculty of Commerce, Human Sciences and Education",D symbol in Mathematics or Accounting,N/A,N/A
Bachelor of Accounting (Chartered Accountancy),"Faculty of Commerce, Human Sciences and Education",C symbol in Mathematics and D symbol in English,N/A,N/A
"Diploma in the Theory of
Accounting","Faculty of Commerce, Human Sciences and Education",A relevant Bachelor degree at NQF Level 7,N/A,N/A
Bachelor of Economics,"Faculty of Commerce, Human Sciences and Education",D symbol in Mathematics,N/A,N/A
Bachelor of Communication,"Faculty of Commerce, Human Sciences and Education",D symbol in English,N/A,N/A
Bachelor of English and Linguistics,"Faculty of Commerce, Human Sciences and Education",D symbol in English,N/A,N/A
Bachelor of Criminal Justice in Correctional Management,"Faculty of Commerce, Human Sciences and Education",N/A,N/A,N/A
Bachelor of Criminal Justice in Policing,"Faculty of Commerce, Human Sciences and Education",N/A,N/A,N/A
Bachelor of Public Management,"Faculty of Commerce, Human Sciences and Education",E symbol in Mathematics,N/A,N/A
Bachelor of Culinary Arts,"Faculty of Commerce, Human Sciences and Education",N/A,N/A,N/A
Bachelor of Hospitality Management,"Faculty of Commerce, Human Sciences and Education",N/A,N/A,N/A
Bachelor of Tourism Innovation and Development,"Faculty of Commerce, Human Sciences and Education",N/A,N/A,N/A
Diploma in Technical and Vocational Education and Training: Trainer,"Faculty of Commerce, Human Sciences and Education","Applicants must be qualified in a designated trade, Have at least 3 years industrial working experience in the relevant occupational domain",N/A,N/A
Diploma in Technical and Vocational Education and Training: Management,"Faculty of Commerce, Human Sciences and Education","Applicants must be qualified in a designated trade, Have at least 3 years industrial working experience of which 1 year should be on a managerial level at a VTC/ COSDEC/TVET institution Or TVET Trainer Diploma",N/A,N/A
Bachelor of Marketing,"Faculty of Commerce, Human Sciences and Education",D symbol in Mathematics,N/A,N/A
Bachelor of Procurement and Supply Chain Management,"Faculty of Commerce, Human Sciences and Education",D symbol in Mathematics,N/A,N/A
Bachelor of Sport Management,"Faculty of Commerce, Human Sciences and Education",N/A,N/A,N/A
Bachelor of Transport Management,"Faculty of Commerce, Human Sciences and Education",E symbol in Mathematics,N/A,N/A
Bachelor of Business Management,"Faculty of Commerce, Human Sciences and Education",D symbol in Mathematics,N/A,N/A
Bachelor of Business and Information Administration,"Faculty of Commerce, Human Sciences and Education",N/A,N/A,N/A
Bachelor of Entrepreneurship,"Faculty of Commerce, Human Sciences and Education",N/A,N/A,N/A
Bachelor of Human Resources Management,"Faculty of Commerce, Human Sciences and Education",N/A,N/A,N/A
Bachelor of Accounting Honours,"Faculty of Commerce, Human Sciences and Education",A Bachelor of Accounting or an equivalent qualification on NQF Level 7.,N/A,N/A
Bachelor of Economics Honours,"Faculty of Commerce, Human Sciences and Education",A Bachelor of Economic or an equivalent qualification at NQF Level 7.,N/A,N/A
Bachelor of Communication Honours,"Faculty of Commerce, Human Sciences and Education",A Bachelor of Communication or an equivalent qualification at NQF Level 7.,N/A,N/A
Bachelor of Criminal Justice Honours,"Faculty of Commerce, Human Sciences and Education",A Bachelor of Criminal Justice or an equivalent qualification at NQF Level 7.,N/A,N/A
Bachelor of Public Governance Honours,"Faculty of Commerce, Human Sciences and Education","A Bachelor of Public Management or an equivalent
qualification at NQF Level 7.",N/A,N/A
Bachelor of English and Linguistics Honours,"Faculty of Commerce, Human Sciences and Education",A Bachelor of English and Linguistics or an equivalent qualification at NQF Level 7.,N/A,N/A
Master of English and Applied Linguistics,"Faculty of Commerce, Human Sciences and Education",A Bachelor of English and Linguistics Honours or an equivalent qualification at NQF Level 8,N/A,N/A
Bachelor of Hospitality and Tourism Honours,"Faculty of Commerce, Human Sciences and Education",A Bachelor of Hospitality or Tourism Management or equivalent qualification at NQF Level 7,N/A,N/A
"Bachelor of Logistics and Supply
Chain Management Honours","Faculty of Commerce, Human Sciences and Education",A Bachelor of Logistics and Supply Chain Management or an equivalent qualification at NQF Level 7,N/A,N/A
Bachelor of Marketing Honours,"Faculty of Commerce, Human Sciences and Education",A Bachelor degree in Marketing or an equivalent qualification at NQF Level 7,N/A,N/A
Postgraduate Diploma in Procurement Management,"Faculty of Commerce, Human Sciences and Education",A Bachelor’s degree in any discipline at NQF Level 7. Applicants must have at least three years of relevant experience in the procurement field in the public or private sector.,N/A,N/A
"Master of Logistics and Supply
Cain Management","Faculty of Commerce, Human Sciences and Education",A Bachelor of Logistics and Supply Chain Management Honours or an equivalent qualification at NQF Level 8.,N/A,N/A
Master of Marketing,"Faculty of Commerce, Human Sciences and Education",A Bachelor Honours degree in Marketing or an equivalent qualification at NQF Level 8.,N/A,N/A
Bachelor of Business Management Honours,"Faculty of Commerce, Human Sciences and Education",A Bachelor of Business Management or an equivalent qualification at NQF Level 7.,N/A,N/A
Bachelor of Human Resources Management Honours,"Faculty of Commerce, Human Sciences and Education","A Bachelor of Human Resources Management or an equivalent qualification at NQF Level 7. Students who lack HRM cognate area courses will however, if admitted on Advanced Standing, required to do additional courses and complete the programme over 2 years.",N/A,N/A
Bachelor of Industrial and Labour Relations Honours,"Faculty of Commerce, Human Sciences and Education","A Bachelor of Human Resources Management or an equivalent qualification at NQF Level 7. Students who lack HRM cognate area courses will however, if admitted on Advanced Standing, required to do additional courses and complete the programme over 2 years.",N/A,N/A
Master of Human Resources Management,"Faculty of Commerce, Human Sciences and Education",A Bachelor of Human Resources Management Honours or an equivalent qualification at NQF Level 8 or a four year pre-NQF qualification with research component in related field.,N/A,N/A
Master of Management,"Faculty of Commerce, Human Sciences and Education",A Bachelor of Management Honours degree or equivalent qualification or a four-year pre-NQF qualification with research component in related field.,N/A,N/A
Postgraduate Diploma in Management,"Faculty of Commerce, Human Sciences and Education","A Bachelor degree in any discipline, or an equivalent qualification at NQF Level 7. Have at least 2 years relevant managerial experience.",N/A,N/A
Master of Business Administration,"Faculty of Commerce, Human Sciences and Education","A Bachelor degree at NQF Level 8, which includes a component of supervised research. Have at least 2 years business and managerial experience",N/A,N/A
Executive Master of Business Administration,"Faculty of Commerce, Human Sciences and Education","A Bachelor degree at NQF Level 8, which includes a component of supervised research. Have at least 5 years managerial experience",N/A,N/A
Master of Leadership and Change Management,"Faculty of Commerce, Human Sciences and Education","A Bachelor degree at NQF Level 8, which includes a component of supervised research. Have at least 3 years managerial experience",N/A,N/A
